Quiz 2
…
london_works <- gutenberg_download(c( 215, 310, 318, 710, 746, 788, 910, 911, 1029, 1056, 1074,
                                      1075, 1089, 1096, 1160, 1161, 1162, 1163, 1164, 1187, 1208,
                                      1449, 1596, 1655, 1669, 1688, 1730, 2377, 2415, 2416, 2429,
                                      2512, 2545, 4953, 6455, 10736, 11051, 12336, 14449, 14654,
                                      14658, 16257, 18062, 19678, 21936, 21970, 21971, 22104, 48474),
                                      meta_fields = "title"
                                      )

## Warning in .f(.x[[i]], ...): Could not download a book at http://
## aleph.gutenberg.org/1/9/6/7/19678/19678.zip

wilde_works %>%
  count(title)

## # A tibble: 31 x 2
##    title                                                                 n
##    <chr>                                                             <int>
##  1 A Critic in Pall Mall: Being Extracts from Reviews and Miscellan~  6643
##  2 A Florentine Tragedy; La Sainte Courtisane                         1636
##  3 A House of Pomegranates                                            3329
##  4 A Woman of No Importance                                           3274
##  5 "A Woman of No Importance\nAudio performance"                       124
##  6 An Ideal Husband                                                   4464
##  7 Charmides, and Other Poems                                         2064
##  8 Children in Prison and Other Cruelties of Prison Life               403
##  9 De Profundis                                                       1500
## 10 Essays and Lectures                                                5062
## # ... with 21 more rows

# Our tibble contains 21 works of Wilde

london_works %>%
  count(title)

## # A tibble: 48 x 2
##    title                                                                 n
##    <chr>                                                             <int>
##  1 A Daughter of the Snows                                           10360
##  2 A Son Of The Sun                                                   6963
##  3 Adventure                                                          8007
##  4 Before Adam                                                        3711
##  5 "Brown Wolf and Other Jack London Stories\nChosen and Edited By ~  6546
##  6 Burning Daylight                                                  11769
##  7 Children of the Frost                                              5573
##  8 Dutch Courage and Other Stories                                    3730
##  9 Jerry of the Islands                                               7131
## 10 John Barleycorn                                                    6236
## # ... with 38 more rows
…
